7.2 fable | Untitled
…
forecast.fable.students %>% accuracy(students.tsibble.test) %>%
  arrange(RMSE)

## Warning: The future dataset is incomplete, incomplete out-of-sample data will be treated as missing. 
## 10 observations are missing between 2021 and 2030

## # A tibble: 40 x 11
##    .model 지역규모 .type       ME     RMSE      MAE     MPE    MAPE  MASE RMSSE
##    <chr>  <fct>    <chr>    <dbl>    <dbl>    <dbl>   <dbl>   <dbl> <dbl> <dbl>
##  1 ets    특별/광역시~ Test   -3.19e3   12018.   11184.  -0.111   0.451   NaN   NaN
##  2 arima  특별/광역시~ Test   -5.84e4   63489.   58439.  -2.37    2.37    NaN   NaN
##  3 nnetar 특별/광역시~ Test   -2.33e5  261541.  233453.  -9.53    9.53    NaN   NaN
##  4 naive  특별/광역시~ Test   -2.94e5  320533.  293517. -11.9    11.9     NaN   NaN
##  5 rw     특별/광역시~ Test   -2.94e5  320533.  293517. -11.9    11.9     NaN   NaN
##  6 tslm   특별/광역시~ Test   -1.02e6 1030881. 1022804. -41.0    41.0     NaN   NaN
##  7 mean   특별/광역시~ Test   -1.02e6 1030881. 1022804. -41.0    41.0     NaN   NaN
##  8 arima  계       Test  NaN          NaN      NaN  NaN     NaN       NaN   NaN
##  9 arima  면지역   Test  NaN          NaN      NaN  NaN     NaN       NaN   NaN
## 10 arima  시       Test  NaN          NaN      NaN  NaN     NaN       NaN   NaN
## # ... with 30 more rows, and 1 more variable: ACF1 <dbl>
…
