4.2 시계열 데이터 응용 사례 | Untitled
…
      ### plot, x, y 축제목 설정

employees %>% 
  mutate(year = year(time), qrt = quarter(time)) %>%
  group_by(year, qrt) %>%
  summarise(total.year = sum(total), 
            employees.edu.year = sum(employees.edu))

## # A tibble: 32 x 4
## # Groups:   year [8]
##     year   qrt total.year employees.edu.year
##    <dbl> <int>      <int>              <int>
##  1  2013     1      73238               5107
##  2  2013     2      76618               5305
##  3  2013     3      76895               5418
##  4  2013     4      76841               5362
##  5  2014     1      75629               5348
##  6  2014     2      78275               5504
##  7  2014     3      78676               5550
##  8  2014     4      78186               5555
##  9  2015     1      76629               5466
## 10  2015     2      79024               5464
## # ... with 22 more rows
…
wide.covid19.by.age %>% 
  group_by(year(date), month(date)) %>%
  mutate(sum.by.month = sum(`0-9세`)) %>%
  ungroup() %>%
  mutate(rate.by.month = round(`0-9세`/sum.by.month, 3) * 100) %>%
  select(date, `0-9세`, sum.by.month, rate.by.month)

## # A tibble: 302 x 4
##    date       `0-9세` sum.by.month rate.by.month
##    <date>       <dbl>        <dbl>         <dbl>
##  1 2020-04-09       2           14          14.3
##  2 2020-04-10       1           14           7.1
##  3 2020-04-11       1           14           7.1
##  4 2020-04-12       0           14           0  
##  5 2020-04-13       2           14          14.3
##  6 2020-04-14       0           14           0  
##  7 2020-04-15       0           14           0  
##  8 2020-04-16       3           14          21.4
##  9 2020-04-17       1           14           7.1
## 10 2020-04-18       2           14          14.3
## # ... with 292 more rows

wide.covid19.by.age %>% 
  group_by(year(date), month(date), week(date)) %>%
  mutate(sum.by.week = sum(`0-9세`)) %>%
  ungroup() %>%
  mutate(rate.by.week = round(`0-9세`/sum.by.week, 3) * 100) %>%
  select(date, `0-9세`, sum.by.week, rate.by.week)

## # A tibble: 302 x 4
##    date       `0-9세` sum.by.week rate.by.week
##    <date>       <dbl>       <dbl>        <dbl>
##  1 2020-04-09       2           6         33.3
##  2 2020-04-10       1           6         16.7
##  3 2020-04-11       1           6         16.7
##  4 2020-04-12       0           6          0  
##  5 2020-04-13       2           6         33.3
##  6 2020-04-14       0           6          0  
##  7 2020-04-15       0           6          0  
##  8 2020-04-16       3           6         50  
##  9 2020-04-17       1           6         16.7
## 10 2020-04-18       2           6         33.3
## # ... with 292 more rows
…
전체 데이터에 대한 누적 합계가 아닌 연별, 월별, 주별 등의 주기별 누적합계를 구하려면 앞서 설명한 group_by(), collapse_by()와 함께 사용하면 원하는 기간동안의 누적 합계를 구할 수 있다.

employees %>% 
  group_by(year(time)) %>%
  mutate(cumsum.total = cumsum(total), 
         cumsum.edu = cumsum(employees.edu))

## # A tibble: 96 x 6
## # Groups:   year(time) [8]
##    time       total employees.edu `year(time)` cumsum.total cumsum.edu
##    <date>     <int>         <int>        <dbl>        <int>      <int>
##  1 2013-01-01 24287          1710         2013        24287       1710
##  2 2013-02-01 24215          1681         2013        48502       3391
##  3 2013-03-01 24736          1716         2013        73238       5107
##  4 2013-04-01 25322          1745         2013        98560       6852
##  5 2013-05-01 25610          1774         2013       124170       8626
##  6 2013-06-01 25686          1786         2013       149856      10412
##  7 2013-07-01 25681          1813         2013       175537      12225
##  8 2013-08-01 25513          1811         2013       201050      14036
##  9 2013-09-01 25701          1794         2013       226751      15830
## 10 2013-10-01 25798          1790         2013       252549      17620
## # ... with 86 more rows
…
