4.9 월 비중 백분율, 연 비중 백분율 | Untitled
…
covid19 %>% 
  group_by(yearmonth(date)) %>%
  mutate(sum.by.month = sum(`0-9세`)) %>%
  ungroup() %>%
  mutate(rate.by.month = round(`0-9세`/sum.by.month, 3) * 100) %>%
  select(date, `0-9세`, sum.by.month, rate.by.month)

## # A tibble: 302 x 4
##    date       `0-9세` sum.by.month rate.by.month
##    <date>       <dbl>        <dbl>         <dbl>
##  1 2020-04-09       2           14          14.3
##  2 2020-04-10       1           14           7.1
##  3 2020-04-11       1           14           7.1
##  4 2020-04-12       0           14           0  
##  5 2020-04-13       2           14          14.3
##  6 2020-04-14       0           14           0  
##  7 2020-04-15       0           14           0  
##  8 2020-04-16       3           14          21.4
##  9 2020-04-17       1           14           7.1
## 10 2020-04-18       2           14          14.3
## # ... with 292 more rows

covid19 %>% 
  group_by(year(date), month(date), week(date)) %>%
  mutate(sum.by.week = sum(`0-9세`)) %>%
  ungroup() %>%
  mutate(rate.by.week = round(`0-9세`/sum.by.week, 3) * 100) %>%
  select(date, `0-9세`, sum.by.week, rate.by.week)

## # A tibble: 302 x 4
##    date       `0-9세` sum.by.week rate.by.week
##    <date>       <dbl>       <dbl>        <dbl>
##  1 2020-04-09       2           6         33.3
##  2 2020-04-10       1           6         16.7
##  3 2020-04-11       1           6         16.7
##  4 2020-04-12       0           6          0  
##  5 2020-04-13       2           6         33.3
##  6 2020-04-14       0           6          0  
##  7 2020-04-15       0           6          0  
##  8 2020-04-16       3           6         50  
##  9 2020-04-17       1           6         16.7
## 10 2020-04-18       2           6         33.3
## # ... with 292 more rows
…
