4.11 월별, 분기별, 연별 누적합계 Plot | Untitled
…
            Untitled

4.11 월별, 분기별, 연별 누적합계 Plot

시계열 데이터는 시간동안의 데이터 흐름을 나타내지만 경우에 따라서 계속된 합계값을 나타내야 할 경우가 있다. 예를 들어 주간별 매출액의 연도별 누적 매출액, 웹사이트의 누적 사용자와 같은 경우이다. 누적값은 앞서 설명한 grouping과 함께 쓰면 더 좋은 결과를 낼 수 있다.

data.frame : cumsum(), group_by(), collapse_by() 함수

data.frame 객체로 저장된 시계열 데이터에 대한 누적값을 구하기 위해서는 dplyr 패키지의 누적값을 산출 함수인 cumsum() 함수를 사용한다. 데이터를 grouping 하지 않고 전체 데이터에 대한 누적값은 mutate() 함수를 사용하여 cumsum() 함수 결과 컬럼을 생성함으로써 구할 수 있다.

students %>%
  mutate(cumsum = cumsum(학생수계)) %>%
  select(연도, 학생수계, cumsum)

## # A tibble: 22 x 3
##    연도       학생수계   cumsum
##    <date>        <dbl>    <dbl>
##  1 1999-01-01  8658358  8658358
##  2 2000-01-01  8535867 17194225
##  3 2001-01-01  8414423 25608648
##  4 2002-01-01  8361933 33970581
##  5 2003-01-01  8379775 42350356
##  6 2004-01-01  8371630 50721986
##  7 2005-01-01  8371421 59093407
##  8 2006-01-01  8354891 67448298
##  9 2007-01-01  8309932 75758230
## 10 2008-01-01  8187782 83946012
## # ... with 12 more rows
…
전체 데이터에 대한 누적 합계가 아닌 연별, 월별, 주별 등의 주기별 누적합계를 구하려면 앞서 설명한 group_by(), collapse_by()와 함께 사용하면 원하는 기간동안의 누적 합계를 구할 수 있다.

employees %>% 
  group_by(year(time)) %>%
  mutate(cumsum.total = cumsum(total), 
         cumsum.edu = cumsum(employees.edu))

## # A tibble: 96 x 6
## # Groups:   year(time) [8]
##    time       total employees.edu `year(time)` cumsum.total cumsum.edu
##    <date>     <int>         <int>        <dbl>        <int>      <int>
##  1 2013-01-01 24287          1710         2013        24287       1710
##  2 2013-02-01 24215          1681         2013        48502       3391
##  3 2013-03-01 24736          1716         2013        73238       5107
##  4 2013-04-01 25322          1745         2013        98560       6852
##  5 2013-05-01 25610          1774         2013       124170       8626
##  6 2013-06-01 25686          1786         2013       149856      10412
##  7 2013-07-01 25681          1813         2013       175537      12225
##  8 2013-08-01 25513          1811         2013       201050      14036
##  9 2013-09-01 25701          1794         2013       226751      15830
## 10 2013-10-01 25798          1790         2013       252549      17620
## # ... with 86 more rows
…
