4.4 시계열 데이터 Grouping | t.utf8
…
timetk 패키지

timetk 패키지에서는 그룹핑을 위해 summarise_by_time() 함수를 제공한다. 매개변수로 .date_var(시간컬럼), .by(그룹핑 단위) 등을 설정하고 산출하기 원하는 컬럼명과 그룹함수를 기재하여 원하는 값을 얻을 수 있다.

library(timetk)
loan %>% 
  summarise_by_time(.date_var = 기준일자, .by = 'week', 
                    total.신규실행건수  = sum(당일신규실행건수), 
                    total.신규실행액수 = sum(당일신규실행금액.억원.),
                    mean.건수 = mean(당일신규실행건수))

## # A tibble: 53 x 4
##    기준일자   total.신규실행건수 total.신규실행액수 mean.건수
##    <date>                  <int>              <int>     <dbl>
##  1 2018-12-30                  0                  0        0 
##  2 2019-01-06               4386                178      366.
##  3 2019-01-13               3649                 94      130.
##  4 2019-01-20              12247                182      437.
##  5 2019-01-27              51926               1120     1854.
##  6 2019-02-03              14866                231      531.
##  7 2019-02-10              51965                960     1856.
##  8 2019-02-17             131982               2613     4714.
##  9 2019-02-24              96869               1903     3460.
## 10 2019-03-03              46744                712     1669.
## # ... with 43 more rows
…
