4.1 시계열 데이터 정보 다루기 | Untitled
…
library(timetk)
wide.covid19.by.age %>% 
  summarise_by_time(.date_var = date, .by = 'week', 
                    `1대`= sum(`0-9세`), 
            `10대` = sum(`10-19세`), 
            `20대` = sum(`20-29세`), 
            `30대` = sum(`30-39세`), 
            `40대` = sum(`40-49세`), 
            `50대` = sum(`50-59세`), 
            `60대` = sum(`60-69세`), 
            `70대` = sum(`70-79세`), 
            `80대` = sum(`80세 이상`))

## # A tibble: 45 x 10
##    date       `1대` `10대` `20대` `30대` `40대` `50대` `60대` `70대` `80대`
##    <date>     <dbl>  <dbl>  <dbl>  <dbl>  <dbl>  <dbl>  <dbl>  <dbl>  <dbl>
##  1 2020-04-05     4     10     24     13     12     11     15      2      5
##  2 2020-04-12     8     18     62     21     13     18     16     11      6
##  3 2020-04-19     1     10     19      7      8      9      4      3      4
##  4 2020-04-26     1      4     23     17     10      3      2      1      1
##  5 2020-05-03     1      4     19     17      8      2      6      1      2
##  6 2020-05-10     6     25     95     32     16      8      9      4      2
##  7 2020-05-17     1     12     29     12     17      6      5      3      0
##  8 2020-05-24     8     21     54     54     43     50     32      7      7
##  9 2020-05-31     6      5     26     24     26     39     44     27      8
## 10 2020-06-07     4     17     43     38     27     69     74     37     23
## # ... with 35 more rows

employees %>% 
  summarise_by_time(.date_var = time, .by = 'month', 
                    total.year = sum(total), 
            employees.edu = sum(employees.edu))

## # A tibble: 96 x 3
##    time       total.year employees.edu
##    <date>          <int>         <int>
##  1 2013-01-01      24287          1710
##  2 2013-02-01      24215          1681
##  3 2013-03-01      24736          1716
##  4 2013-04-01      25322          1745
##  5 2013-05-01      25610          1774
##  6 2013-06-01      25686          1786
##  7 2013-07-01      25681          1813
##  8 2013-08-01      25513          1811
##  9 2013-09-01      25701          1794
## 10 2013-10-01      25798          1790
## # ... with 86 more rows
…
