4.8 월별, 분기별, 연별 합계 Plot | Untitled
…
      ### plot, x, y 축제목 설정

employees %>% 
  mutate(year = year(time), qrt = quarter(time)) %>%
  group_by(year, qrt) %>%
  summarise(total.year = sum(total), 
            employees.edu.year = sum(employees.edu))

## # A tibble: 32 x 4
## # Groups:   year [8]
##     year   qrt total.year employees.edu.year
##    <dbl> <int>      <int>              <int>
##  1  2013     1      73238               5107
##  2  2013     2      76618               5305
##  3  2013     3      76895               5418
##  4  2013     4      76841               5362
##  5  2014     1      75629               5348
##  6  2014     2      78275               5504
##  7  2014     3      78676               5550
##  8  2014     4      78186               5555
##  9  2015     1      76629               5466
## 10  2015     2      79024               5464
## # ... with 22 more rows
…
