4.4 주간, 월간 데이터는? : 시간 Grouping | Untitled
…
library(timetk)
covid19 %>% 
  summarise_by_time(.date_var = date, .by = 'week', 
                    `1대`= sum(`0-9세`), 
            `10대` = sum(`10-19세`), 
            `20대` = sum(`20-29세`), 
            `30대` = sum(`30-39세`), 
            `40대` = sum(`40-49세`), 
            `50대` = sum(`50-59세`), 
            `60대` = sum(`60-69세`), 
            `70대` = sum(`70-79세`), 
            `80대` = sum(`80세 이상`))

## # A tibble: 45 x 10
##    date       `1대` `10대` `20대` `30대` `40대` `50대` `60대` `70대` `80대`
##    <date>     <dbl>  <dbl>  <dbl>  <dbl>  <dbl>  <dbl>  <dbl>  <dbl>  <dbl>
##  1 2020-04-05     4     10     24     13     12     11     15      2      5
##  2 2020-04-12     8     18     62     21     13     18     16     11      6
##  3 2020-04-19     1     10     19      7      8      9      4      3      4
##  4 2020-04-26     1      4     23     17     10      3      2      1      1
##  5 2020-05-03     1      4     19     17      8      2      6      1      2
##  6 2020-05-10     6     25     95     32     16      8      9      4      2
##  7 2020-05-17     1     12     29     12     17      6      5      3      0
##  8 2020-05-24     8     21     54     54     43     50     32      7      7
##  9 2020-05-31     6      5     26     24     26     39     44     27      8
## 10 2020-06-07     4     17     43     38     27     69     74     37     23
## # ... with 35 more rows
…
